* Mol @mol in small water box, make disappear
* USE VSWITch/SHIFt/short cutoff
*

stream toppar.str
read rtf card append name toppar/meh4.rtf ! always read this  ..

read psf card name ../psfcoor/@{mol}_solv.psf
read coor card name ../psfcoor/@{mol}_solv.crd

energy

pert sele segi @{mol} end
scalar char set 0. sele segi @{mol} end
scalar rsca set 0. sele segi @{mol} end
fast off

! move crystal setup here to avoid stupid 'skulls' ...
set bxl 15.5516
set xo 10.
crystal defi cubi @bxl @bxl @bxl 90. 90. 90.
crystal build cutoff @xo nope 
image byres xcen 0.0 ycen 0.0 zcen 0.0 sele all end

shake bonh sele resname tip3 end para

nbonds atom cdie shif vatom vswit -
   cutnb 8.5 ctofnb 7.5 ctonnb 6.5 eps 1. e14fac 1.
update  inbfrq 1 imgfrq 1 ihbfrq 0

! some energy checks
energy lsta 0.0 lsto 1.0 lamb 0. pssp inbfrq 1 imgfrq 1
energy lsta 0.0 lsto 1.0 lamb 1. pssp inbfrq -1 imgfrq -1
! just checking ..
energy lsta 0.0 lsto 1.0 lamb 0.5 pssp

! Number of lamba points (including the 2 end points), e.g. 11 or 21
if @?nlambda .eq. 0 set nlambda 21 ! 0 <= @idx <= (nlambda - 1)

! equil simulation length per lambda point
if @?lneq .eq. 0 set lneq  100000

! production simulation length per lambda point
if @?lnstep .eq. 0 set lnstep  200000

if @?rand .eq. 0 set rand 1

! Calculate spacing between lamba points 
calc lspac = 1 / (@nlambda-1)

calc lamb = @lspac * @idx

scalar fbeta set 5. sele all end ! for langevin dynamics

! run equil + production dynamics
! to extend this to Bennett, write trajectory during prod. dynamics

open unit 11 writ form name solv/restart/@{rand}/rest.@idx.0
dyna leap lang start -
     tbath 300. rbuf 0. ilbfrq 0 iunrea -1 iunwri 11 firstt 240. - 
     nstep @lneq iuncrd -1 iseed @rand @rand @rand @rand -
     npri 10000 time 0.001 iprfrq 20000 echeck 0. -
     lsta 0. lamb @lamb lsto 1. psta @lneq pwind pssp

open unit 10 read form name solv/restart/@{rand}/rest.@idx.0
open unit 11 writ form name solv/restart/@{rand}/rest.@idx.1
dyna leap lang restart -
     tbath 300. rbuf 0. ilbfrq 0 iunrea 10 iunwri 11 -
     nstep @lnstep iuncrd -1 -
     npri 10000 time 0.001 iprfrq 20000 echeck 0. -
     lsta 0. lamb @lamb lsto 1.0  psta 0 pstop @lnstep pwind pssp
     
stop

